POINT NAME;X;Y;DATE;[TIME];h VALUE;UPPERMOST LAYER*;DEEPEST LAYER**;TOP OF THE SCREEN*;BOTTOM OF THE SCREEN**;[MEASUREMENT ERROR];[STATISTICS]
well_1;1668458.913;4859884.092;2017-01-01;13:25:02;2.1;1;2;50;26;0.1;SD
well_1;1668458.913;4859884.092;2017-04-15;13:30:00;2.3;1;2;50;26;0.1;SD
well_1;1668458.913;4859884.092;2017-11-03;13:00:23;2.5;1;2;50;26;0.1;SD
well_2;1669249.779;4859525.16;2018-02-07;14:00:23;3.2;2;2;30.5;21.4;0.4;VAR
well_3;1668982.102;4858895.509;2018-03-01;15:00:23;4.6;1;1;45.5;33;0.3;SD
well_4;1670630.753;4859847.59;2017-04-06;16:00:23;0.2;1;1;60.2;34;0.22;SD
well_4;1670630.753;4859847.59;2016-12-10;16:00:23;0.2;1;1;60.2;34;0.22;SD
well_5;1670372.2;4859336.569;2019-05-05;17:00:23;-0.33;2;2;30;25;0.56;VAR
well_6;1669447.496;4859394.363;2017-06-08;18:00:23;3.23;2;2;30.33;22.9;1.4;CV
	